# Surface pressure
1013
# Number of levels
9
# Profile fields: P T W O C
300    290   0.017  0.06    0.0006
400    280   0.018  0.08    0.0008
500    275   0.019  0.10    0.0010
600    270   0.020  0.12    0.0012
700    280   0.021  0.14    0.0014
800    290   0.022  0.16    0.0016
900    300   0.023  0.18    0.0018
1000   313   0.024  0.19    0.0019
1025   315   0.024  0.20    0.0020
